…
Then, first get the reform data so that route number and route name are
distinct variables.

``` r
reform_NYC_transit = 
pivot_longer(NYC_transit_adpt,
    route1:route11,
    names_to = "route_number", 
    values_to = "route_name",
    values_drop_na = TRUE)
reform_NYC_transit
```

    ## # A tibble: 4,270 × 10
    ##   line     station…¹ stati…² stati…³ entra…⁴ entry vending ada   route…⁵ route…⁶
    ##   <chr>    <chr>       <dbl>   <dbl> <chr>   <lgl> <chr>   <lgl> <chr>   <chr>  
    ## 1 4 Avenue 25th St      40.7   -74.0 Stair   TRUE  YES     FALSE route1  R      
    ## 2 4 Avenue 25th St      40.7   -74.0 Stair   TRUE  YES     FALSE route1  R      
    ## 3 4 Avenue 36th St      40.7   -74.0 Stair   TRUE  YES     FALSE route1  N      
    ## 4 4 Avenue 36th St      40.7   -74.0 Stair   TRUE  YES     FALSE route2  R      
    ## 5 4 Avenue 36th St      40.7   -74.0 Stair   TRUE  YES     FALSE route1  N      
    ## # … with 4,265 more rows, and abbreviated variable names ¹​station_name,
    ## #   ²​station_latitude, ³​station_longitude, ⁴​entrance_type, ⁵​route_number,
    ## #   ⁶​route_name
…
``` r
distinct_station_A = filter(reform_NYC_transit,route_name=='A') %>%
  distinct( line,station_name,.keep_all=TRUE) 

print(nrow(distinct_station_A))
```

    ## [1] 60

``` r
distinct_station_A
```

    ## # A tibble: 60 × 10
    ##   line       stati…¹ stati…² stati…³ entra…⁴ entry vending ada   route…⁵ route…⁶
    ##   <chr>      <chr>     <dbl>   <dbl> <chr>   <lgl> <chr>   <lgl> <chr>   <chr>  
    ## 1 42nd St S… Times …    40.8   -74.0 Stair   TRUE  YES     FALSE route1  A      
    ## 2 8 Avenue   125th …    40.8   -74.0 Stair   TRUE  YES     FALSE route1  A      
    ## 3 8 Avenue   145th …    40.8   -73.9 Stair   TRUE  YES     FALSE route1  A      
    ## 4 8 Avenue   14th St    40.7   -74.0 Easeme… TRUE  YES     TRUE  route1  A      
    ## 5 8 Avenue   168th …    40.8   -73.9 Stair   TRUE  YES     TRUE  route1  A      
    ## # … with 55 more rows, and abbreviated variable names ¹​station_name,
    ## #   ²​station_latitude, ³​station_longitude, ⁴​entrance_type, ⁵​route_number,
    ## #   ⁶​route_name
…
``` r
Mr_trash_wheel = 
  readxl::read_excel("./data/Trash-Wheel-Collection-Totals-7-2020-2.xlsx",skip = 1,sheet=1,range = cellranger::cell_cols("A:N"))  %>%
  janitor::clean_names() %>%
  select(dumpster=dumpster, weight = weight_tons,volume = volume_cubic_yards,everything())%>%
  drop_na(dumpster) %>%
  filter(row_number()!=n())%>%
  mutate(sports_balls = as.integer(sports_balls))
  
Mr_trash_wheel
```

    ## # A tibble: 453 × 14
    ##   dumpster weight volume month  year date                plast…¹ polys…² cigar…³
    ##   <chr>     <dbl>  <dbl> <chr> <dbl> <dttm>                <dbl>   <dbl>   <dbl>
    ## 1 1          4.31     18 May    2014 2014-05-16 00:00:00    1450    1820  126000
    ## 2 2          2.74     13 May    2014 2014-05-16 00:00:00    1120    1030   91000
    ## 3 3          3.45     15 May    2014 2014-05-16 00:00:00    2450    3100  105000
    ## 4 4          3.1      15 May    2014 2014-05-17 00:00:00    2380    2730  100000
    ## 5 5          4.06     18 May    2014 2014-05-17 00:00:00     980     870  120000
    ## # … with 448 more rows, 5 more variables: glass_bottles <dbl>,
    ## #   grocery_bags <dbl>, chip_bags <dbl>, sports_balls <int>,
    ## #   homes_powered <dbl>, and abbreviated variable names ¹​plastic_bottles,
    ## #   ²​polystyrene, ³​cigarette_butts
Now do the similar process to Professor Trash Wheel.

``` r
Prof_trash_wheel = 
  readxl::read_excel("./data/Trash-Wheel-Collection-Totals-7-2020-2.xlsx",skip = 1,sheet=2,range = cellranger::cell_cols("A:N"))  %>%
  janitor::clean_names() %>%
  select(dumpster=dumpster, weight = weight_tons,volume = volume_cubic_yards,everything())%>%
  drop_na(dumpster) %>%
  filter(row_number()!=n())%>%
  mutate(sports_balls = as.integer(sports_balls))
  
Prof_trash_wheel
```

    ## # A tibble: 70 × 14
    ##   dumpster weight volume month  year date                plast…¹ polys…² cigar…³
    ##      <dbl>  <dbl>  <dbl> <chr> <dbl> <dttm>                <dbl>   <dbl>   <dbl>
    ## 1        1   1.79     15 Janu…  2017 2017-01-02 00:00:00    1950    6080   19700
    ## 2        2   1.58     15 Janu…  2017 2017-01-30 00:00:00    9540   11230   17600
    ## 3        3   2.32     18 Febr…  2017 2017-02-26 00:00:00    8350    9210   12000
    ## 4        4   3.72     15 Febr…  2017 2017-02-26 00:00:00    8590    1030   13000
    ## 5        5   1.45     15 Febr…  2017 2017-02-28 00:00:00    7830    9950   16000
    ## # … with 65 more rows, 5 more variables: glass_bottles <dbl>,
    ## #   grocery_bags <dbl>, chip_bags <dbl>, sports_balls <int>,
    ## #   homes_powered <dbl>, and abbreviated variable names ¹​plastic_bottles,
    ## #   ²​polystyrene, ³​cigarette_butts
…
``` r
pols_month = read_csv("./data/fivethirtyeight_datasets/pols-month.csv",show_col_types = FALSE) %>% 
  janitor::clean_names() %>%
  separate(mon,c('year','month','day'),sep='-') %>%
  mutate(year = as.integer(year), month = as.integer(month), day = as.integer(day)) %>%
  mutate(month = month.abb[month]) %>%
  mutate(president = ifelse(prez_dem==1,'dem','gop')) %>%
  select(-prez_dem,-prez_gop) %>%
  select(-day)
pols_month
```

    ## # A tibble: 822 × 9
    ##    year month gov_gop sen_gop rep_gop gov_dem sen_dem rep_dem president
    ##   <int> <chr>   <dbl>   <dbl>   <dbl>   <dbl>   <dbl>   <dbl> <chr>    
    ## 1  1947 Jan        23      51     253      23      45     198 dem      
    ## 2  1947 Feb        23      51     253      23      45     198 dem      
    ## 3  1947 Mar        23      51     253      23      45     198 dem      
    ## 4  1947 Apr        23      51     253      23      45     198 dem      
    ## 5  1947 May        23      51     253      23      45     198 dem      
    ## # … with 817 more rows
…
Now join the snp into pols. So pols are the dataframe that need to
contain all the values. Then join unemployment into pols_snp, so
pols_snp contains all the values.

``` r
pols_snp = left_join(pols_month,snp,by = c("year", "month"))
pols_snp_unemployment = left_join(pols_snp,unemployment,by = c("year", "month"))
pols_snp_unemployment
```

    ## # A tibble: 822 × 11
    ##    year month gov_gop sen_gop rep_gop gov_dem sen_dem rep_dem president close
    ##   <dbl> <chr>   <dbl>   <dbl>   <dbl>   <dbl>   <dbl>   <dbl> <chr>     <dbl>
    ## 1  1947 Jan        23      51     253      23      45     198 dem          NA
    ## 2  1947 Feb        23      51     253      23      45     198 dem          NA
    ## 3  1947 Mar        23      51     253      23      45     198 dem          NA
    ## 4  1947 Apr        23      51     253      23      45     198 dem          NA
    ## 5  1947 May        23      51     253      23      45     198 dem          NA
    ## # … with 817 more rows, and 1 more variable: unemployment <dbl>
…
